name="No AE and DIP Costs"
tags={
	"Gameplay"
	"Fixes"
}
picture="no-ae.png"
supported_version="1.30.*.*"
path="C:/Users/Alexa/Documents/Paradox Interactive/Europa Universalis IV/mod/no-ae"
remote_file_id="925501572"